{
    "error_code": 0,
    "error_message": "",
    "todos": [
        {
            "id": 1,
            "title": "NAGAI",
            "detail": "MYBIRTHDAY",
            "date": "2000-03-09T00:00:00.000Z"
        },
        {
            "id": 2,
            "title": "nagai",
            "detail": "test",
            "date": null
        },
        {
            "id": 3,
            "title": "ayumu",
            "detail": null,
            "date": null
        }
    ]
}
